Gene Expression,http://files.storageroomapp.com/accounts/5053775f0f66021ac5001c74/collection/50564b280f66023d7f002251/entries/50f9be5f0f66025e05000492/fields/k50f9bdfa0f66023d35000d27/file.pdf,GX Workflow
Gene Expression,http://files.storageroomapp.com/accounts/5053775f0f66021ac5001c74/collection/50564b280f66023d7f002251/entries/50f9bcaa0f66023c93001c21/fields/k50f9bdfa0f66023d35000d27/file.pdf,TaqMan Array Card Workflow
Gene Expression,http://tools.lifetechnologies.com/content/sfs/brochures/cms_057124.pdf,SYBR Green Master Mix on Roche LightCycler 480 Flyer
Gene Expression,http://tools.lifetechnologies.com/content/sfs/brochures/cms_057125.pdf,SYBR Green Master mixes on the Bio-Rad CFX96 Real-Time PCR Detection System Flyer
Gene Expression,http://tools.lifetechnologies.com/content/sfs/brochures/cms_088754.pdf,Gene Expression Assay Performance Guarantee White Paper
Gene Expression,http://tools.lifetechnologies.com/content/sfs/manuals/cms_071532.pdf,TaqMan Universal Master Mix II Product Bulletin
Gene Expression,http://tools.lifetechnologies.com/content/sfs/brochures/cms_045478.pdf,TaqMan Custom Plating Service  Product Bulletin
Gene Expression,http://tools.lifetechnologies.com/content/sfs/brochures/cms_054422.pdf,TaqMan Array Plates Product Bulletin
Gene Expression,http://tools.lifetechnologies.com/content/sfs/brochures/cms_042183.pdf,Power SYBR Green Master Mix Product Bulletin
Genotyping,https://tools.lifetechnologies.com/content/sfs/brochures/cms_057563.pdf,TaqMan Sample-to-SNP Kit Product Bulletin
Genotyping,http://tools.lifetechnologies.com/content/sfs/brochures/cms_040597.pdf,TaqMan SNP Genotyping Assays  Product Bulletin
MicroRNA,http://tools.invitrogen.com/content/sfs/posters/cms_040548.pdf,MicroRNA Quantitation by RT-PCR
MicroRNA,http://tools.lifetechnologies.com/content/sfs/brochures/cms_094697.pdf,Using TaqMan Fast Advanced Master Mix and TaqMan Array Human MicroRNA Cards to screen hundreds of miRNAs Application Note
Gene Expression,http://tools.lifetechnologies.com/content/sfs/brochures/cms_040127.pdf,Custom TaqMan Array Cards Product Bulletin
Gene Expression,http://tools.lifetechnologies.com/content/sfs/brochures/cms_042737.pdf,TaqMan Gene Expression Assays for quantitative measurement of mitchondrial DNA transcription Application Note
Gene Expression,http://tools.lifetechnologies.com/content/sfs/brochures/cms_042279.pdf,Using TaqMan Endogenous Control Assays to select an endogenous control for experimental studies Application Note 
Gene Expression,http://tools.lifetechnologies.com/content/sfs/brochures/cms_085696.pdf,TaqMan Gene Expression Assays Solutions Brochure
Copy Number Variation,http://tools.lifetechnologies.com/content/sfs/brochures/cms_062459.pdf,TaqMan Copy Number Assays
MicroRNA,http://tools.lifetechnologies.com/content/sfs/brochures/taqman-microrna-assay-faqs.pdf,TaqMan miRNA FAQs External Document
Genotyping,http://tools.lifetechnologies.com/content/sfs/brochures/cms_095916.pdf,TaqMan Mutation Detection Assays - accurate and sensitive somatic mutation detection with castPCR Product Bulletin 
MicroRNA,http://tools.lifetechnologies.com/content/sfs/brochures/cms_092392.pdf,High correlation of miRNA quantiation data from matched FFPE and snap-frozen tissues using TaqMan MicroRNA Assays Application Note
Copy Number Variation,http://tools.invitrogen.com/content/sfs/manuals/cms_062368.pdf,TaqMan® Copy Number Assays Protocol
Copy Number Variation,http://tools.invitrogen.com/content/sfs/brochures/cms_073956.pdf,Design Pipeline and Validation of TaqMan® Copy Number Assays Application Note
MicroRNA,http://tools.invitrogen.com/content/sfs/manuals/cms_075414.pdf,TaqMan® Pri-miRNA Assays Quick Reference Card
MicroRNA,http://tools.invitrogen.com/content/sfs/manuals/cms_075413.pdf,TaqMan® Pri-miRNA Assays Protocol
MicroRNA,http://tools.invitrogen.com/content/sfs/manuals/cms_042167.pdf,TaqMan® MicroRNA Assays Protocol
Gene Expression,http://tools.invitrogen.com/content/sfs/manuals/cms_041280.pdf,TaqMan® Non-coding RNA & Gene Expression Assays Protocol
Gene Expression,http://tools.invitrogen.com/content/sfs/manuals/cms_041280.pdf,TaqMan® Gene Expression Assays Protocol
Basics,http://www.invitrogen.com/etc/medialib/en/filelibrary/Nucleic-Acid-Amplification-Expression-Profiling/PDFs.Par.70657.File.dat/Understanding%20Ct%20Application%20Note.pdf,Real-time PCR: Understanding Ct
Gene Expression,http://tools.invitrogen.com/content/sfs/manuals/cms_083618.pdf,Introduction to Gene Expression: Getting Started Guide
Gene Expression,http://tools.invitrogen.com/content/sfs/manuals/cms_056077.pdf,TaqMan® Gene Expression Assays Quick Reference Card
Gene Expression,http://tools.lifetechnologies.com/content/sfs/brochures/cms_040599.pdf,Design process of Quantitative TaqMan Gene Expression Analysis Tools White Paper
Gene Expression,http://tools.lifetechnologies.com/content/sfs/brochures/cms_042279.pdf,Using TaqMan Endogenous Control Assays to select an endogenous control for experimental studies Application Note 
Genotyping,http://files.parse.com/9dea3181-cc21-4748-8d18-c45b15703fc2/7052acc6-3efb-4d48-a01e-a30dbca10f8a-CO111690_App%20Note_TaqMan%20PreAmp%20Master%20Mix%20Kit_FLR.pdf,TaqMan PreAmp Master Mix Kit  Product Bulletin
MicroRNA,http://files.parse.com/9dea3181-cc21-4748-8d18-c45b15703fc2/7052acc6-3efb-4d48-a01e-a30dbca10f8a-CO111690_App%20Note_TaqMan%20PreAmp%20Master%20Mix%20Kit_FLR.pdf,TaqMan PreAmp Master Mix Kit  Product Bulletin
Gene Expression,http://files.parse.com/9dea3181-cc21-4748-8d18-c45b15703fc2/7052acc6-3efb-4d48-a01e-a30dbca10f8a-CO111690_App%20Note_TaqMan%20PreAmp%20Master%20Mix%20Kit_FLR.pdf,TaqMan PreAmp Master Mix Kit  Application Note
Gene Expression,http://files.parse.com/9dea3181-cc21-4748-8d18-c45b15703fc2/4370b06b-8baf-45f4-b4ec-227584595e2f-127AP14-01_App%20Note_TaqMan%20Fusion%20Transcript%20Assays.pdf,New fusion transcript assay for the BCR-ABL translocation Application Note
Genotyping,http://files.parse.com/9dea3181-cc21-4748-8d18-c45b15703fc2/bb8473a6-6969-48bf-8400-b1ee8147eb26-CO04197_Genotyper_Quality_values.pdf,Quality Value in TaqMan Genotyper Software White Paper
Genotyping,http://files.parse.com/9dea3181-cc21-4748-8d18-c45b15703fc2/35c395d7-ed4c-4893-9e28-8a5de01a33e5-CO04201_Genotyper_call_rate.pdf,Increasing the call rate in TaqMan Genotyper Software White Paper
Gene Expression,http://tools.lifetechnologies.com/content/sfs/brochures/cms_085892.pdf,TaqMan Fast Virus 1-Step Master Mix Product Bulletin
Gene Expression,http://tools.lifetechnologies.com/content/sfs/brochures/cms_053104.pdf,TaqMan RNA-to-CT 1-Step Kit Product Bulletin
Gene Expression,http://tools.lifetechnologies.com/content/sfs/brochures/cms_050551.pdf,Power SYBR Green RNA-to-CT 1-Step Kit Product Bulletin
Gene Expression,http://tools.lifetechnologies.com/content/sfs/brochures/cms_057126.pdf,Applied Biosystems SYBR Green Master Mixes on the Bio-Rad iQ5 Real-time PCR Detection System Flyer
Gene Expression,http://www3.appliedbiosystems.com/cms/groups/mcb_support/documents/generaldocuments/cms_107268.pdf,SYBR Select Master Mix - robust performance for real-time PCR systems Data Sheet
Gene Expression,http://tools.lifetechnologies.com/content/sfs/brochures/cms_084549.pdf,TaqMan Fast Advanced Master Mix Product Bulletin
Gene Expression,http://www3.appliedbiosystems.com/cms/groups/mcb_marketing/documents/generaldocuments/cms_099105.pdf,TaqMan PreAmp Master Mix Product Bulletin
Gene Expression,http://tools.lifetechnologies.com/content/sfs/brochures/ap-taqman-gene-expression-assays.pdf,Amplification efficiency of TaqMan Gene Expression Assays Application Note
Gene Expression,http://tools.lifetechnologies.com/content/sfs/brochures/duplexing-quantitative-real-time-PCR-TaqMan-gene-expression-assays.pdf,Duplexing in quantitative real-time PCR with TaqMan Gene Expression Assays Application Note
Gene Expression,http://tools.lifetechnologies.com/content/sfs/brochures/cms_040028.pdf,Custom TaqMan Expression Assays Product Bulletin
Genetic Variation,http://tools.lifetechnologies.com/content/sfs/brochures/taqman-assay-genetic-variation-research-br.pdf,TaqMan Assays for genetic variation research Brochure 
Genotyping,http://tools.lifetechnologies.com/content/sfs/brochures/cms_042072.pdf,TaqMan Drug Metabolism Genotyping (DME) Assays Product Bulletin
MicroRNA,http://tools.lifetechnologies.com/content/sfs/brochures/tech-note-protocols-for-human-rodent-microrna-profiling.pdf,Optimized protocols for human or rodent microRNA profiling with precious samples Application Note
MicroRNA,http://tools.lifetechnologies.com/content/sfs/brochures/taqman-mirna-abc-purification-kit-pb.pdf,TaqMan miRNA ABC Purification Kit Product Bulletin
MicroRNA,http://tools.lifetechnologies.com/content/sfs/brochures/cms_076021.pdf,TaqMan Pri-miRNA Assays Product Bulletin
MicroRNA,http://tools.lifetechnologies.com/content/sfs/brochures/cms_061179.pdf,Leading the Way in MicroRNA Brochure
Genetic Variation,http://tools.lifetechnologies.com/content/sfs/brochures/cms_092392.pdf,Test Doc for existing
MicroRNA,http://tools.lifetechnologies.com/content/sfs/brochures/ap-mRNA-miRNA-analysis-taqman-array-card.pdf,TaqMan Array Cards for combined mRNA and miRNA Analysis 
Gene Expression,http://tools.lifetechnologies.com/content/sfs/brochures/ap-mRNA-miRNA-analysis-taqman-array-card.pdf,TaqMan Array Cards for combined mRNA and miRNA Analysis Application Note
Gene Expression,http://tools.lifetechnologies.com/content/sfs/brochures/cms_081523.pdf,TaqMan Non-coding RNA Assays help characterize hidden RNA regulatory networks  Application Note
Genotyping,http://tools.lifetechnologies.com/content/sfs/manuals/cms_071532.pdf,TaqMan Universal Master Mix II Product Bulletin
Genotyping,http://tools.lifetechnologies.com/content/sfs/brochures/cms_039236.pdf,TaqMan Genotyping Master Mix Product Bulletin
Genotyping,http://tools.lifetechnologies.com/content/sfs/brochures/cms_084549.pdf,TaqMan Fast Advanced Master Mix Product Bulletin 
Genotyping,http://tools.lifetechnologies.com/content/sfs/brochures/cms_057563.pdf,TaqMan Sample-to-SNP Kit Product Bulletin
MicroRNA,http://tools.lifetechnologies.com/content/sfs/manuals/cms_071532.pdf,TaqMan Universal Master Mix II Product Bulletin
MicroRNA,http://tools.lifetechnologies.com/content/sfs/brochures/cms_084549.pdf,TaqMan Fast Advanced Master Mix Product Bulletin
